############### aims_MD_restart.dat #######################
# This file contains all information that is necessary to #
# continue a MD run. The data in this file should not be  #
# altered by the user, unless you REALLY know what you    #
# are doing.                                              #
###########################################################
#  aims_uuid : 5B105920-98C9-4F8D-A118-C83FADC8AEC6                                
n_atoms                   7
coords                   0.30271064000851669817E+02   -0.65050919909999693758E+01   -0.37384333885868841207E+01
coords                   0.31419632819754294673E+02   -0.29486851766330191005E+01   -0.45341445956818953178E+01
coords                   0.31345665748380003635E+02   -0.39633179323412109918E+00   -0.23794958318949874787E+01
coords                   0.20064909000356045965E+02    0.18486411217608424984E+01   -0.80691980210723510680E+01
coords                   0.31478494243430521493E+02   -0.54165890545438362125E+01   -0.50664853727634495684E+01
coords                   0.31897689462182729159E+02   -0.10555157459708786050E+01   -0.40554950356359062980E+01
coords                   0.30793011366930834072E+02   -0.55996536423158147500E+01   -0.68357816421411996544E+01
v_half                  -0.23855828870544669940E+02   -0.11482258853780372476E+02    0.71383742396901723737E+02
v_half                  -0.20198094787657243643E+01    0.14368746945752530308E+02   -0.51125477032201196437E+01
v_half                  -0.22560127464277289988E+02   -0.16150957602484034226E+02    0.35952348980509192700E+02
v_half                  -0.25342423645808994479E+04    0.61999829076213950430E+03   -0.85735813924446597412E+03
v_half                   0.11898578424834223011E+01    0.97893561884723947486E+01    0.21767851264345434714E+01
v_half                   0.16165656659982474253E+03   -0.44154107203482901411E+02    0.52096541851867435469E+02
v_half                  -0.22426815806945583631E+01   -0.61249568826325351267E+02   -0.10636575926894592214E+03
v_last                  -0.50504755198251935155E+02   -0.31221446859156959164E+02    0.99468113442771326049E+02
v_last                  -0.89734630721769850226E+01    0.10124064380447029166E+02   -0.22040538136995262875E+02
v_last                  -0.21494293546149879859E+02   -0.14225035990122732343E+02    0.18052993348579409627E+02
v_last                  -0.25367122181561030629E+04    0.61927800540849955269E+03   -0.85809170190059455763E+03
v_last                   0.81438218296889675063E+00    0.11096867201953156012E+02   -0.46584699612063698027E+01
v_last                   0.16191381290415907301E+03   -0.44811691114513429568E+02    0.53804704389419008237E+02
v_last                   0.34640615762515857057E+02   -0.48787864945682308360E+02   -0.17505007705350397629E+02
r_last                   0.30318775658592759470E+02   -0.64821274732924090145E+01   -0.38812008733806875327E+01
r_last                   0.31423672438711825805E+02   -0.29774226705245241398E+01   -0.45239195002754550856E+01
r_last                   0.31390786003308559060E+02   -0.36402987802915304227E+00   -0.24514005298560057611E+01
r_last                   0.25133393729517845117E+02    0.60864454023656344717E+00   -0.63544817425834194680E+01
r_last                   0.31476114527745554739E+02   -0.54361677669207812968E+01   -0.50708389430163185452E+01
r_last                   0.31574376328983078110E+02   -0.96720753156391270355E+00   -0.41596881193396413323E+01
r_last                   0.30797496730092223771E+02   -0.54771545046631642251E+01   -0.66230501236033081369E+01
s_write                  0.10000000000000000000E+01
s_NP_half                0.10000000000000000000E+01
s_last_write             0.10000000000000000000E+01
s_dot_NP_half            0.00000000000000000000E+00
s_dot_NP_last            0.00000000000000000000E+00
tsystem_half             0.66000000000000003109E-01
tsystem_last             0.66000000000000003109E-01
MD_H0                    0.00000000000000000000E+00
MD_Epot_last            -0.15302548865815901991E+03
BDP_psuedo-Hamilt.       0.00000000000000000000E+00
MD_stepcount             34
MD_high_order_i           0
MD_force_evaluations     34
