############### aims_MD_restart.dat #######################
# This file contains all information that is necessary to #
# continue a MD run. The data in this file should not be  #
# altered by the user, unless you REALLY know what you    #
# are doing.                                              #
###########################################################
#  aims_uuid : 3090E624-3671-4F44-A663-BD2E550090C8                                
n_atoms                   7
coords                   0.31240482101383939550E+02   -0.64117094786039858789E+01   -0.65328037460038910211E+01
coords                   0.31079550600737238852E+02   -0.30271168395968728326E+01   -0.49529931307691485998E+01
coords                   0.32903816864392091190E+02   -0.17928708882209157260E+00   -0.40979630781046427757E+01
coords                   0.30462701971277837742E+02   -0.82231788972582697816E+00   -0.25714496373394872819E+01
coords                   0.31290388148587915396E+02   -0.53669171246597411340E+01   -0.50216531213769588504E+01
coords                   0.31164198472876439183E+02   -0.92597856348170282104E+00   -0.43080924295017606340E+01
coords                   0.32836578738732526972E+02   -0.60053419223808734984E+01   -0.41039118469747171147E+01
v_half                  -0.23721084745782663461E+01   -0.73110935089591428948E+01    0.28922806362573243888E+02
v_half                  -0.13013724844387114743E+02   -0.49815369730979426777E+02    0.84613846388739073490E+01
v_half                  -0.34107648334324096595E+02    0.52492071855344384801E+02    0.15868225773756538644E+02
v_half                   0.17035849742649592287E+02   -0.14182987766331770274E+02   -0.27134009002418629564E+02
v_half                  -0.91399273436734151943E-01   -0.15277732366623633098E+02   -0.52098235778282493413E+01
v_half                   0.18466149254258179546E+01    0.19272331888043002124E+02    0.35505327044695755845E+01
v_half                   0.45964523737288063288E+01   -0.44590358991222458940E+02    0.22012269451931243402E+00
v_last                  -0.98755471995240839966E+00   -0.85671367836897438508E+01    0.29562726545887304752E+02
v_last                  -0.15549867044530531146E+02   -0.48868610931973414324E+02    0.76076042361457654195E+01
v_last                  -0.29121614704826814801E+02    0.54981143135172288794E+02    0.18209945530150619675E+02
v_last                   0.17138672262327151685E+02   -0.14155969167924796537E+02   -0.23264566865430065690E+02
v_last                  -0.41510589038614037483E+00   -0.14933072623614384256E+02   -0.53115973069685722407E+01
v_last                   0.16429756592056239395E+01    0.18909681589175661998E+02    0.31608136687520453911E+01
v_last                   0.90299386069960441148E+01   -0.46511593725442992309E+02    0.20244653069832065917E+01
r_last                   0.31241668155621230341E+02   -0.64080539318495066681E+01   -0.65472651491851774352E+01
r_last                   0.31086057463159431080E+02   -0.30022091547313829452E+01   -0.49572238230885856680E+01
r_last                   0.32920870688559254802E+02   -0.20553312474976376256E+00   -0.41058971909915209508E+01
r_last                   0.30454184046406513886E+02   -0.81522639584266110013E+00   -0.25578826328382779920E+01
r_last                   0.31290433848224633806E+02   -0.53592782584764293574E+01   -0.50190482095880444291E+01
r_last                   0.31163275165413725887E+02   -0.93561472942572432299E+00   -0.43098676958539954285E+01
r_last                   0.32834280512545660713E+02   -0.59830467428852625034E+01   -0.41040219083219771079E+01
s_write                  0.10000000000000000000E+01
s_NP_half                0.10000000000000000000E+01
s_last_write             0.10000000000000000000E+01
s_dot_NP_half            0.00000000000000000000E+00
s_dot_NP_last            0.00000000000000000000E+00
tsystem_half             0.10000000000000000000E+01
tsystem_last             0.10000000000000000000E+01
MD_H0                    0.00000000000000000000E+00
MD_Epot_last            -0.15326257442587558444E+03
BDP_psuedo-Hamilt.       0.00000000000000000000E+00
MD_stepcount           2001
MD_high_order_i           0
MD_force_evaluations   2001
